[
  {
    "key": "06-2023",
    "label": "June 2023"
  },
  {
    "key": "05-2023",
    "label": "May 2023"
  },
  {
    "key": "04-2023",
    "label": "April 2023"
  },
  {
    "key": "03-2023",
    "label": "March 2023"
  },
  {
    "key": "02-2023",
    "label": "February 2023"
  },
  {
    "key": "01-2023",
    "label": "January 2023"
  },
  {
    "key": "12-2022",
    "label": "December 2022"
  }
]
